<svg xmlns="http://www.w3.org/2000/svg" id="prefix__plus" width="13.319" height="13.319" viewBox="0 0 13.319 13.319">
    <defs>
        <style>
            .prefix__cls-1{fill:#fff}
        </style>
    </defs>
    <path id="prefix__Path_2396" d="M6.659 0a6.659 6.659 0 1 0 6.659 6.659A6.667 6.667 0 0 0 6.659 0zm0 12.467a5.808 5.808 0 1 1 5.808-5.808 5.814 5.814 0 0 1-5.808 5.808z" class="prefix__cls-1" data-name="Path 2396"/>
    <path id="prefix__Path_2397" d="M68.642 64.9h-2.894V62a.426.426 0 0 0-.852 0v2.9H62a.426.426 0 0 0 0 .852h2.9v2.894a.426.426 0 1 0 .852 0v-2.898h2.894a.426.426 0 0 0 0-.852z" class="prefix__cls-1" data-name="Path 2397" transform="translate(-58.663 -58.663)"/>
</svg>
